<svg width="59" height="48" viewBox="0 0 59 48" xmlns="http://www.w3.org/2000/svg">
<path d="M26 10.4194L2 16.8197V41.2355L25.8004 47.5814L26 47.6347L50 41.2348V16.8197L26 10.4194ZM26 22.8065L21.844 21.6977L42.0653 16.3056L46.2213 17.4143L26 22.8065ZM12.5529 19.2205L32.7742 13.828L39.06 15.5042L18.8387 20.8967L12.5529 19.2205ZM10.5161 20.2801L17.4839 22.1385V25.6912L10.5161 23.7905V20.2801ZM29.7689 13.027L9.54839 18.4191L5.77873 17.4143L26 12.0218L29.7689 13.027ZM3.54839 18.4221L8.96774 19.8677V24.9733L19.0323 27.7181V22.5509L25.2258 24.2025V45.8255L19.0323 44.1743V38.5009L8.96774 35.7549V41.4899L3.54839 40.0448V18.4221ZM17.4839 43.7607L10.5161 41.9027V37.7834L17.4839 39.683V43.7607ZM26.7742 45.8255V24.2025L48.4516 18.4214V40.0448L26.7742 45.8255Z" />
<path d="M45.3549 37.5433H46.9032V39.0917H45.3549V37.5433Z" />
<path d="M42.2581 38.3176H43.8064V39.866H42.2581V38.3176Z" />
<path d="M39.1613 39.0917H40.7097V40.6401H39.1613V39.0917Z" />
</svg>
